Django==2.2.6
django-ckeditor==5.7.1
django-colorfield==0.1.15
django-js-asset==1.2.2
django-multiselectfield==0.1.10
django-nested-inline==0.3.7
numpy==1.18.1
Pillow==6.2.1
pkg-resources==0.0.0
psycopg2-binary==2.8.4
pytz==2019.3
sorl-thumbnail==12.5.0
sqlparse==0.3.0
